#########################!!!! Do Not change space or order, DO NOT WORK WITH 1FILE #########################
***********************file directory *******************
/home/production2/Mux_data/H2017/H2017_458
********************output file ***************
/home/production2/Mux_data/H2017/H2017_458
********************Box Number*******************
2
*************Number of file**************************
128
************Number of pixels*********
104
***********Gain **** ********
4e6
***********RQ ranges*** *********
-4
-2
***********VBD ranges************
53.4
54.7
**************** OV TYP pour DCR **********
2.0
**********************************Temperature **********
25
************* Breakdown Voltage *************
52.6993600643
52.6989908525
52.7118876589
52.6764711124
52.6637021232
52.7111432479
52.6973277253
52.6926623309
52.6533955892
52.6647656379
52.6742046944
52.6247510339
52.6694864394
52.6782502429
52.6243727858
52.664471524
52.5960643667
52.5412578699
52.5832517849
52.5896998463
52.5489954313
52.5651117058
52.5508372375
52.5151846149
52.4804572534
52.5038519938
52.4845564086
52.4528491469
52.4911648931
52.5209784898
52.4738120574
52.4534997075
52.4469886403
52.4107323327
52.4463218028
52.4590775
52.384036742
52.4516858872
52.4174360352
52.4414866524
52.4036870311
52.4094326077
52.4178390576
52.3816002719
52.4223115619
52.3746189852
52.3291826496
52.3490158662
52.3036456504
52.3116404232
52.2902225714
52.3155490833
52.3004202815
52.3002488814
52.2840859177
52.2624739671
52.2443259406
52.2470871418
52.2657887254
52.2881348306
52.2328023132
52.2755099208
52.2621517379
52.2364922919
52.7260280021
52.7500765718
52.7417549647
52.7098251142
52.6934963978
52.7376342225
52.7279767483
52.7122114927
52.670865998
52.6809720892
52.7014222462
52.6659145284
52.6861329713
52.6964850358
52.6535617417
52.6993620209
52.6428035138
52.5520617344
52.6036778802
52.5904208501
52.5873599657
52.5763241534
52.5522584964
52.5494926548
52.496324563
52.5265651126
52.5023821135
52.4781600502
52.4898066689
52.5242689238
52.5092860829
52.449023409
52.4613411523
52.4444991385
52.4586968325
52.4790327511
52.4232292099
52.4597785823
52.4341409974
52.4292390589
52.4359236925
52.4306000085
52.4293701916
52.3982716446
52.4279556147
52.411564239
52.3615421715
52.3812348092
52.3190987477
52.3495782327
52.2868361161
52.3082438329
52.3457080987
52.3210256372
52.3068819805
52.3151277449
52.2951532601
52.2779528658
52.2985794758
52.2937188787
52.2790093837
52.2792098099
52.2487953515
52.2555323102
